<?xml version="1.0" encoding="utf-8"?>
<!-- Generator: Adobe Illustrator 16.0.0, SVG Export Plug-In . SVG Version: 6.00 Build 0)  -->
<!DOCTYPE svg PUBLIC "-//W3C//DTD SVG 1.1//EN" "http://www.w3.org/Graphics/SVG/1.1/DTD/svg11.dtd">
<svg version="1.1" id="Layer_1" xmlns="http://www.w3.org/2000/svg" xmlns:xlink="http://www.w3.org/1999/xlink" x="0px" y="0px"
	 width="149px" height="150px" viewBox="0 0 149 150" enable-background="new 0 0 149 150" xml:space="preserve">
<title>Fill 1</title>
<desc>Created with Sketch.</desc>
<g id="Goals---Strength_x2C_-Flexibility-_x26_-Calmness">
	<g id="Desktop-HD" transform="translate(-347.000000, -413.000000)">
		<g id="Header-_x2B_-Macbook" transform="translate(-26.000000, -191.000000)">
			<g id="PROGRAMS-header" transform="translate(98.000000, 570.000000)">
				<path id="Fill-1" fill="#EA5033" d="M349.418,169.012c-32.978,0-59.713-26.734-59.713-59.714
					c0-32.979,26.735-59.713,59.713-59.713c32.98,0,59.714,26.734,59.714,59.713C409.133,142.277,382.398,169.012,349.418,169.012z
					 M349.5,34.879c-41.146,0-74.5,33.355-74.5,74.5s33.355,74.5,74.5,74.5c41.145,0,74.5-33.354,74.5-74.5
					S390.646,34.879,349.5,34.879z M379.776,120.145c-1.44,1.566-3.569,2.381-5.699,2.381s-4.259-0.814-5.699-2.381
					c-2.63-2.756-2.881-6.764-2.881-10.521c0-3.757,0.251-7.766,2.881-10.521c1.44-1.565,3.569-2.38,5.699-2.38
					s4.259,0.814,5.699,2.38c2.63,2.756,2.881,6.764,2.881,10.521C382.657,113.381,382.406,117.389,379.776,120.145z
					 M374.077,92.275c-9.182,0-15.156,6.859-15.156,17.348c0,10.551,6.063,17.348,15.156,17.348c9.182,0,15.156-6.858,15.156-17.348
					C389.233,99.073,383.17,92.275,374.077,92.275z M346.194,126.22h5.95V77.996h-5.95V126.22z M325.344,96.722
					c5.562,0,6.952,3.207,6.952,7.516c0,4.151-1.114,7.516-6.952,7.516c-5.627,0-6.889-3.2-6.889-7.516
					C318.455,100.772,319.258,96.722,325.344,96.722z M331.857,122.775l-5.824-1.127c-3.464-0.693-6.138-1.296-6.138-3.633
					c0-0.822,0.432-1.644,1.1-2.289c1.413,0.369,2.887,0.535,4.349,0.535c9.579,0,13.465-6.436,13.465-12.024
					c0-3.213-1.261-6.321-3.592-8.553c1.486-0.808,3.291-1.155,5.096-1.155v-4.509c-3.086,0-5.79,1.502-7.881,3.729
					c-2.157-1.06-4.623-1.475-7.087-1.475c-10.174,0-13.465,7.093-13.465,11.962c0,3.858,1.916,7.824,5.615,10.041
					c-1.469,1.288-2.395,3.073-2.395,5.015c0,5.222,5.686,6.431,9.243,7.115l5.887,1.127c1.026,0.197,4.761,0.656,4.761,3.199
					c0,2.634-3.604,3.126-7.516,3.126c-4.76,0-10.083-0.688-15.281-2.13v5.199c4.515,1.211,9.271,1.451,12.185,1.451
					c8.218,0,16.499-1.617,16.499-8.09C340.876,124.742,335.543,123.494,331.857,122.775L331.857,122.775z"/>
			</g>
		</g>
	</g>
</g>
</svg>
